<?xml version="1.0" encoding="UTF-8" standalone="no"?>
<svg
   xmlns:dc="http://purl.org/dc/elements/1.1/"
   xmlns:cc="http://creativecommons.org/ns#"
   xmlns:rdf="http://www.w3.org/1999/02/22-rdf-syntax-ns#"
   xmlns:svg="http://www.w3.org/2000/svg"
   xmlns="http://www.w3.org/2000/svg"
   xmlns:sodipodi="http://sodipodi.sourceforge.net/DTD/sodipodi-0.dtd"
   xmlns:inkscape="http://www.inkscape.org/namespaces/inkscape"
   fill-opacity="0"
   color-rendering="auto"
   color-interpolation="auto"
   text-rendering="auto"
   stroke="rgb(0,0,0)"
   stroke-linecap="square"
   width="499"
   stroke-miterlimit="10"
   shape-rendering="auto"
   stroke-opacity="0"
   fill="rgb(0,0,0)"
   stroke-dasharray="none"
   font-weight="normal"
   stroke-width="1"
   height="336"
   font-family="'Dialog'"
   font-style="normal"
   stroke-linejoin="miter"
   font-size="12"
   stroke-dashoffset="0"
   image-rendering="auto"
   id="svg2"
   version="1.1"
   inkscape:version="0.91 r13725"
   sodipodi:docname="monitor.svg">
  <metadata
     id="metadata438">
    <rdf:RDF>
      <cc:Work
         rdf:about="">
        <dc:format>image/svg+xml</dc:format>
        <dc:type
           rdf:resource="http://purl.org/dc/dcmitype/StillImage" />
      </cc:Work>
    </rdf:RDF>
  </metadata>
  <sodipodi:namedview
     pagecolor="#ffffff"
     bordercolor="#666666"
     borderopacity="1"
     objecttolerance="10"
     gridtolerance="10"
     guidetolerance="10"
     inkscape:pageopacity="0"
     inkscape:pageshadow="2"
     inkscape:window-width="664"
     inkscape:window-height="480"
     id="namedview436"
     showgrid="false"
     inkscape:zoom="0.62124248"
     inkscape:cx="418.31801"
     inkscape:cy="168"
     inkscape:window-x="0"
     inkscape:window-y="23"
     inkscape:window-maximized="0"
     inkscape:current-layer="svg2" />
  <!--Generated by the Batik Graphics2D SVG Generator-->
  <defs
     id="genericDefs">
    <defs
       id="defs1">
      <clipPath
         id="clipPath1"
         clipPathUnits="userSpaceOnUse">
        <path
           id="path9"
           d="M-7 -7 L219 -7 L219 51 L-7 51 L-7 -7 Z" />
      </clipPath>
      <clipPath
         id="clipPath2"
         clipPathUnits="userSpaceOnUse">
        <path
           id="path12"
           d="M0 0 L0 26 L208 26 L208 0 Z" />
      </clipPath>
      <clipPath
         id="clipPath3"
         clipPathUnits="userSpaceOnUse">
        <path
           id="path15"
           d="M0 0 L0 14 L208 14 L208 0 Z" />
      </clipPath>
      <clipPath
         id="clipPath4"
         clipPathUnits="userSpaceOnUse">
        <path
           id="path18"
           d="M-7 -7 L265 -7 L265 123 L-7 123 L-7 -7 Z" />
      </clipPath>
      <clipPath
         id="clipPath5"
         clipPathUnits="userSpaceOnUse">
        <path
           id="path21"
           d="M0 0 L0 98 L254 98 L254 0 Z" />
      </clipPath>
      <clipPath
         id="clipPath6"
         clipPathUnits="userSpaceOnUse">
        <path
           id="path24"
           d="M0 0 L0 14 L254 14 L254 0 Z" />
      </clipPath>
      <clipPath
         id="clipPath7"
         clipPathUnits="userSpaceOnUse">
        <path
           id="path27"
           d="M-7 -7 L139 -7 L139 60 L-7 60 L-7 -7 Z" />
      </clipPath>
      <clipPath
         id="clipPath8"
         clipPathUnits="userSpaceOnUse">
        <path
           id="path30"
           d="M0 0 L0 35 L128 35 L128 0 Z" />
      </clipPath>
      <clipPath
         id="clipPath9"
         clipPathUnits="userSpaceOnUse">
        <path
           id="path33"
           d="M0 0 L0 14 L127 14 L127 0 Z" />
      </clipPath>
      <clipPath
         id="clipPath10"
         clipPathUnits="userSpaceOnUse">
        <path
           id="path36"
           d="M-7 -7 L146 -7 L146 137 L-7 137 L-7 -7 Z" />
      </clipPath>
      <clipPath
         id="clipPath11"
         clipPathUnits="userSpaceOnUse">
        <path
           id="path39"
           d="M0 0 L0 112 L135 112 L135 0 Z" />
      </clipPath>
      <clipPath
         id="clipPath12"
         clipPathUnits="userSpaceOnUse">
        <path
           id="path42"
           d="M0 0 L0 14 L135 14 L135 0 Z" />
      </clipPath>
      <clipPath
         id="clipPath13"
         clipPathUnits="userSpaceOnUse">
        <path
           id="path45"
           d="M-7 -7 L219 -7 L219 76 L-7 76 L-7 -7 Z" />
      </clipPath>
      <clipPath
         id="clipPath14"
         clipPathUnits="userSpaceOnUse">
        <path
           id="path48"
           d="M0 0 L0 51 L208 51 L208 0 Z" />
      </clipPath>
      <clipPath
         id="clipPath15"
         clipPathUnits="userSpaceOnUse">
        <path
           id="path51"
           d="M-7 -7 L120 -7 L120 60 L-7 60 L-7 -7 Z" />
      </clipPath>
      <clipPath
         id="clipPath16"
         clipPathUnits="userSpaceOnUse">
        <path
           id="path54"
           d="M0 0 L0 35 L109 35 L109 0 Z" />
      </clipPath>
      <clipPath
         id="clipPath17"
         clipPathUnits="userSpaceOnUse">
        <path
           id="path57"
           d="M0 0 L0 14 L109 14 L109 0 Z" />
      </clipPath>
      <clipPath
         id="clipPath18"
         clipPathUnits="userSpaceOnUse">
        <path
           id="path60"
           d="M-7 -7 L371 -7 L371 51 L-7 51 L-7 -7 Z" />
      </clipPath>
      <clipPath
         id="clipPath19"
         clipPathUnits="userSpaceOnUse">
        <path
           id="path63"
           d="M0 0 L0 26 L360 26 L360 0 Z" />
      </clipPath>
      <clipPath
         id="clipPath20"
         clipPathUnits="userSpaceOnUse">
        <path
           id="path66"
           d="M0 0 L0 14 L360 14 L360 0 Z" />
      </clipPath>
      <clipPath
         id="clipPath21"
         clipPathUnits="userSpaceOnUse">
        <path
           id="path69"
           d="M0 0 L107 0 L107 75 L0 75 L0 0 Z" />
      </clipPath>
      <clipPath
         id="clipPath22"
         clipPathUnits="userSpaceOnUse">
        <path
           id="path72"
           d="M0 0 L0 75 L107 75 L107 0 Z" />
      </clipPath>
      <clipPath
         id="clipPath23"
         clipPathUnits="userSpaceOnUse">
        <path
           id="path75"
           d="M0 0 L106 0 L106 75 L0 75 L0 0 Z" />
      </clipPath>
      <clipPath
         id="clipPath24"
         clipPathUnits="userSpaceOnUse">
        <path
           id="path78"
           d="M0 0 L0 75 L106 75 L106 0 Z" />
      </clipPath>
      <clipPath
         id="clipPath25"
         clipPathUnits="userSpaceOnUse">
        <path
           id="path81"
           d="M0 0 L106 0 L106 106 L0 106 L0 0 Z" />
      </clipPath>
      <clipPath
         id="clipPath26"
         clipPathUnits="userSpaceOnUse">
        <path
           id="path84"
           d="M0 0 L0 106 L106 106 L106 0 Z" />
      </clipPath>
      <clipPath
         id="clipPath27"
         clipPathUnits="userSpaceOnUse">
        <path
           id="path87"
           d="M0 0 L183 0 L183 111 L0 111 L0 0 Z" />
      </clipPath>
      <clipPath
         id="clipPath28"
         clipPathUnits="userSpaceOnUse">
        <path
           id="path90"
           d="M137 53 L137 67 L37 67 L37 53 ZM0 0 L0 111 L183 111 L183 0 Z" />
      </clipPath>
      <clipPath
         id="clipPath29"
         clipPathUnits="userSpaceOnUse">
        <path
           id="path93"
           d="M0 0 L122 0 L122 131 L0 131 L0 0 Z" />
      </clipPath>
      <clipPath
         id="clipPath30"
         clipPathUnits="userSpaceOnUse">
        <path
           id="path96"
           d="M0 0 L0 131 L122 131 L122 0 Z" />
      </clipPath>
      <clipPath
         id="clipPath31"
         clipPathUnits="userSpaceOnUse">
        <path
           id="path99"
           d="M0 0 L218 0 L218 106 L0 106 L0 0 Z" />
      </clipPath>
      <clipPath
         id="clipPath32"
         clipPathUnits="userSpaceOnUse">
        <path
           id="path102"
           d="M0 0 L0 106 L218 106 L218 0 Z" />
      </clipPath>
      <clipPath
         id="clipPath33"
         clipPathUnits="userSpaceOnUse">
        <path
           id="path105"
           d="M0 0 L124 0 L124 170 L0 170 L0 0 Z" />
      </clipPath>
      <clipPath
         id="clipPath34"
         clipPathUnits="userSpaceOnUse">
        <path
           id="path108"
           d="M0 0 L0 170 L124 170 L124 0 Z" />
      </clipPath>
      <clipPath
         id="clipPath35"
         clipPathUnits="userSpaceOnUse">
        <path
           id="path111"
           d="M0 0 L75 0 L75 165 L0 165 L0 0 Z" />
      </clipPath>
      <clipPath
         id="clipPath36"
         clipPathUnits="userSpaceOnUse">
        <path
           id="path114"
           d="M0 0 L0 165 L75 165 L75 0 Z" />
      </clipPath>
      <clipPath
         id="clipPath37"
         clipPathUnits="userSpaceOnUse">
        <path
           id="path117"
           d="M0 0 L177 0 L177 128 L0 128 L0 0 Z" />
      </clipPath>
      <clipPath
         id="clipPath38"
         clipPathUnits="userSpaceOnUse">
        <path
           id="path120"
           d="M0 0 L0 128 L177 128 L177 0 Z" />
      </clipPath>
      <clipPath
         id="clipPath39"
         clipPathUnits="userSpaceOnUse">
        <path
           id="path123"
           d="M0 0 L0 55 L10 55 L10 69 L0 69 L0 165 L75 165 L75 0 Z" />
      </clipPath>
      <clipPath
         id="clipPath40"
         clipPathUnits="userSpaceOnUse">
        <path
           id="path126"
           d="M0 0 L178 0 L178 109 L0 109 L0 0 Z" />
      </clipPath>
      <clipPath
         id="clipPath41"
         clipPathUnits="userSpaceOnUse">
        <path
           id="path129"
           d="M0 0 L0 109 L178 109 L178 0 Z" />
      </clipPath>
      <clipPath
         id="clipPath42"
         clipPathUnits="userSpaceOnUse">
        <path
           id="path132"
           d="M-100 -14 L200 -14 L200 28 L-100 28 L-100 -14 Z" />
      </clipPath>
    </defs>
  </defs>
  <g
     style="font-weight:bold;font-size:11px;font-family:sans-serif;fill:#ffffff;fill-opacity:1;stroke:#ffffff;stroke-opacity:1;text-rendering:geometricPrecision"
     id="g138"
     font-weight="bold"
     transform="translate(287,245)"
     font-size="11">
    <rect
       style="stroke:none"
       id="rect140"
       clip-path="url(#clipPath1)"
       y="0"
       height="40"
       width="208"
       x="0" />
  </g>
  <g
     style="font-weight:bold;font-size:11px;font-family:sans-serif;fill:#000000;fill-opacity:1;stroke:#000000;stroke-linecap:butt;stroke-linejoin:round;stroke-miterlimit:0;stroke-opacity:1;text-rendering:geometricPrecision"
     id="g142"
     stroke-miterlimit="0"
     font-weight="bold"
     transform="translate(287,245)"
     font-size="11">
    <rect
       style="fill:none"
       id="rect144"
       clip-path="url(#clipPath1)"
       y="0"
       height="40"
       width="208"
       x="0" />
    <line
       style="fill:none"
       id="line146"
       y1="14"
       x2="208"
       clip-path="url(#clipPath1)"
       x1="0"
       y2="14" />
  </g>
  <g
     style="font-style:italic;font-size:11px;font-family:sans-serif;fill:#000000;fill-opacity:1;stroke:#000000;stroke-opacity:1;text-rendering:geometricPrecision"
     id="g148"
     font-style="italic"
     transform="translate(287,259)"
     font-size="11">
    <text
       style="stroke:none"
       id="text150"
       clip-path="url(#clipPath2)"
       y="13"
       xml:space="preserve"
       x="2">+observed_update(observable, value)</text>
  </g>
  <g
     style="font-style:italic;font-weight:bold;font-size:11px;font-family:sans-serif;fill:#000000;fill-opacity:1;stroke:#000000;stroke-opacity:1;text-rendering:geometricPrecision"
     id="g152"
     font-weight="bold"
     font-style="italic"
     transform="translate(287,245)"
     font-size="11">
    <text
       style="stroke:none"
       id="text154"
       clip-path="url(#clipPath3)"
       y="11"
       xml:space="preserve"
       x="78">Observer</text>
  </g>
  <g
     style="font-weight:bold;font-size:11px;font-family:sans-serif;fill:#ffffff;fill-opacity:1;stroke:#ffffff;stroke-opacity:1;text-rendering:geometricPrecision"
     id="g156"
     font-weight="bold"
     transform="translate(2,172)"
     font-size="11">
    <rect
       style="stroke:none"
       id="rect158"
       clip-path="url(#clipPath4)"
       y="0"
       height="112"
       width="254"
       x="0" />
  </g>
  <g
     style="font-weight:bold;font-size:11px;font-family:sans-serif;fill:#000000;fill-opacity:1;stroke:#000000;stroke-linecap:butt;stroke-linejoin:round;stroke-miterlimit:0;stroke-opacity:1;text-rendering:geometricPrecision"
     id="g160"
     stroke-miterlimit="0"
     font-weight="bold"
     transform="translate(2,172)"
     font-size="11">
    <rect
       style="fill:none"
       id="rect162"
       clip-path="url(#clipPath4)"
       y="0"
       height="112"
       width="254"
       x="0" />
    <line
       style="fill:none"
       id="line164"
       y1="14"
       x2="254"
       clip-path="url(#clipPath4)"
       x1="0"
       y2="14" />
  </g>
  <g
     style="font-size:11px;font-family:sans-serif;fill:#000000;fill-opacity:1;stroke:#000000;stroke-opacity:1;text-rendering:geometricPrecision"
     id="g166"
     transform="translate(2,186)"
     font-size="11">
    <text
       style="stroke:none"
       id="text168"
       clip-path="url(#clipPath5)"
       y="13"
       xml:space="preserve"
       x="2">+register_monitor(parameter, monitor)</text>
  </g>
  <g
     style="font-size:11px;font-family:sans-serif;fill:#000000;fill-opacity:1;stroke:#000000;stroke-opacity:1;text-rendering:geometricPrecision"
     id="g170"
     transform="translate(2,186)"
     font-size="11">
    <text
       style="stroke:none"
       id="text172"
       clip-path="url(#clipPath5)"
       y="27"
       xml:space="preserve"
       x="2">+unregister_monitor(parameter)</text>
  </g>
  <g
     style="font-size:11px;font-family:sans-serif;fill:#000000;fill-opacity:1;stroke:#000000;stroke-opacity:1;text-rendering:geometricPrecision"
     id="g174"
     transform="translate(2,186)"
     font-size="11">
    <text
       style="stroke:none"
       id="text176"
       clip-path="url(#clipPath5)"
       y="41"
       xml:space="preserve"
       x="2">+observed_update(observable, value, kwargs)</text>
  </g>
  <g
     style="font-size:11px;font-family:sans-serif;fill:#000000;fill-opacity:1;stroke:#000000;stroke-opacity:1;text-rendering:geometricPrecision"
     id="g178"
     transform="translate(2,186)"
     font-size="11">
    <text
       style="stroke:none"
       id="text180"
       clip-path="url(#clipPath5)"
       y="55"
       xml:space="preserve"
       x="2">+subscribe(subscriber, parameter)</text>
  </g>
  <g
     style="font-size:11px;font-family:sans-serif;fill:#000000;fill-opacity:1;stroke:#000000;stroke-opacity:1;text-rendering:geometricPrecision"
     id="g182"
     transform="translate(2,186)"
     font-size="11">
    <text
       style="stroke:none"
       id="text184"
       clip-path="url(#clipPath5)"
       y="69"
       xml:space="preserve"
       x="2">+unsubscribe(subscriber, parameter)</text>
  </g>
  <g
     style="font-size:11px;font-family:sans-serif;fill:#000000;fill-opacity:1;stroke:#000000;stroke-opacity:1;text-rendering:geometricPrecision"
     id="g186"
     transform="translate(2,186)"
     font-size="11">
    <text
       style="stroke:none"
       id="text188"
       clip-path="url(#clipPath5)"
       y="83"
       xml:space="preserve"
       x="2">+snapshot(parameters = None)</text>
  </g>
  <g
     style="font-weight:bold;font-size:11px;font-family:sans-serif;fill:#000000;fill-opacity:1;stroke:#000000;stroke-opacity:1;text-rendering:geometricPrecision"
     id="g190"
     font-weight="bold"
     transform="translate(2,172)"
     font-size="11">
    <text
       style="stroke:none"
       id="text192"
       clip-path="url(#clipPath6)"
       y="11"
       xml:space="preserve"
       x="64">MonitorEventManager</text>
  </g>
  <g
     style="font-weight:bold;font-size:11px;font-family:sans-serif;fill:#ffffff;fill-opacity:1;stroke:#ffffff;stroke-opacity:1;text-rendering:geometricPrecision"
     id="g194"
     font-weight="bold"
     transform="translate(175,34)"
     font-size="11">
    <rect
       style="stroke:none"
       id="rect196"
       clip-path="url(#clipPath7)"
       y="0"
       height="49"
       width="128"
       x="0" />
  </g>
  <g
     style="font-weight:bold;font-size:11px;font-family:sans-serif;fill:#000000;fill-opacity:1;stroke:#000000;stroke-linecap:butt;stroke-linejoin:round;stroke-miterlimit:0;stroke-opacity:1;text-rendering:geometricPrecision"
     id="g198"
     stroke-miterlimit="0"
     font-weight="bold"
     transform="translate(175,34)"
     font-size="11">
    <rect
       style="fill:none"
       id="rect200"
       clip-path="url(#clipPath7)"
       y="0"
       height="49"
       width="128"
       x="0" />
    <line
       style="fill:none"
       id="line202"
       y1="14"
       x2="128"
       clip-path="url(#clipPath7)"
       x1="0"
       y2="14" />
  </g>
  <g
     style="font-style:italic;font-size:11px;font-family:sans-serif;fill:#000000;fill-opacity:1;stroke:#000000;stroke-opacity:1;text-rendering:geometricPrecision"
     id="g204"
     font-style="italic"
     transform="translate(175,48)"
     font-size="11">
    <text
       style="stroke:none"
       id="text206"
       clip-path="url(#clipPath8)"
       y="13"
       xml:space="preserve"
       x="2">+value()</text>
  </g>
  <g
     style="font-style:italic;font-size:11px;font-family:sans-serif;fill:#000000;fill-opacity:1;stroke:#000000;stroke-opacity:1;text-rendering:geometricPrecision"
     id="g208"
     font-style="italic"
     transform="translate(175,48)"
     font-size="11">
    <text
       style="stroke:none"
       id="text210"
       clip-path="url(#clipPath8)"
       y="27"
       xml:space="preserve"
       x="2">+possible_values()</text>
  </g>
  <g
     style="font-style:italic;font-weight:bold;font-size:11px;font-family:sans-serif;fill:#000000;fill-opacity:1;stroke:#000000;stroke-opacity:1;text-rendering:geometricPrecision"
     id="g212"
     font-weight="bold"
     font-style="italic"
     transform="translate(175,34)"
     font-size="11">
    <text
       style="stroke:none"
       id="text214"
       clip-path="url(#clipPath9)"
       y="11"
       xml:space="preserve"
       x="40">Monitor</text>
  </g>
  <g
     style="font-weight:bold;font-size:11px;font-family:sans-serif;fill:#ffffff;fill-opacity:1;stroke:#ffffff;stroke-opacity:1;text-rendering:geometricPrecision"
     id="g216"
     font-weight="bold"
     transform="translate(335,34)"
     font-size="11">
    <rect
       style="stroke:none"
       id="rect218"
       clip-path="url(#clipPath10)"
       y="0"
       height="126"
       width="135"
       x="0" />
  </g>
  <g
     style="font-weight:bold;font-size:11px;font-family:sans-serif;fill:#000000;fill-opacity:1;stroke:#000000;stroke-linecap:butt;stroke-linejoin:round;stroke-miterlimit:0;stroke-opacity:1;text-rendering:geometricPrecision"
     id="g220"
     stroke-miterlimit="0"
     font-weight="bold"
     transform="translate(335,34)"
     font-size="11">
    <rect
       style="fill:none"
       id="rect222"
       clip-path="url(#clipPath10)"
       y="0"
       height="126"
       width="135"
       x="0" />
    <line
       style="fill:none"
       id="line224"
       y1="14"
       x2="135"
       clip-path="url(#clipPath10)"
       x1="0"
       y2="14" />
  </g>
  <g
     style="font-style:italic;font-size:11px;font-family:sans-serif;fill:#000000;fill-opacity:1;stroke:#000000;stroke-opacity:1;text-rendering:geometricPrecision"
     id="g226"
     font-style="italic"
     transform="translate(335,48)"
     font-size="11">
    <text
       style="stroke:none"
       id="text228"
       clip-path="url(#clipPath11)"
       y="13"
       xml:space="preserve"
       x="2">#set_latest_value(value)</text>
  </g>
  <g
     style="font-style:italic;font-size:11px;font-family:sans-serif;fill:#000000;fill-opacity:1;stroke:#000000;stroke-opacity:1;text-rendering:geometricPrecision"
     id="g230"
     font-style="italic"
     transform="translate(335,48)"
     font-size="11">
    <text
       style="stroke:none"
       id="text232"
       clip-path="url(#clipPath11)"
       y="27"
       xml:space="preserve"
       x="2">+latest_value()</text>
  </g>
  <g
     style="font-style:italic;font-size:11px;font-family:sans-serif;fill:#000000;fill-opacity:1;stroke:#000000;stroke-opacity:1;text-rendering:geometricPrecision"
     id="g234"
     font-style="italic"
     transform="translate(335,48)"
     font-size="11">
    <text
       style="stroke:none"
       id="text236"
       clip-path="url(#clipPath11)"
       y="41"
       xml:space="preserve"
       x="2">+start()</text>
  </g>
  <g
     style="font-style:italic;font-size:11px;font-family:sans-serif;fill:#000000;fill-opacity:1;stroke:#000000;stroke-opacity:1;text-rendering:geometricPrecision"
     id="g238"
     font-style="italic"
     transform="translate(335,48)"
     font-size="11">
    <text
       style="stroke:none"
       id="text240"
       clip-path="url(#clipPath11)"
       y="55"
       xml:space="preserve"
       x="2">+stop()</text>
  </g>
  <g
     style="font-size:11px;font-family:sans-serif;fill:#000000;fill-opacity:1;stroke:#000000;stroke-opacity:1;text-rendering:geometricPrecision"
     id="g242"
     transform="translate(335,48)"
     font-size="11">
    <text
       style="stroke:none"
       id="text244"
       clip-path="url(#clipPath11)"
       y="69"
       xml:space="preserve"
       x="2">+register(observer)</text>
  </g>
  <g
     style="font-size:11px;font-family:sans-serif;fill:#000000;fill-opacity:1;stroke:#000000;stroke-opacity:1;text-rendering:geometricPrecision"
     id="g246"
     transform="translate(335,48)"
     font-size="11">
    <text
       style="stroke:none"
       id="text248"
       clip-path="url(#clipPath11)"
       y="83"
       xml:space="preserve"
       x="2">+unregister(observer)</text>
  </g>
  <g
     style="font-size:11px;font-family:sans-serif;fill:#000000;fill-opacity:1;stroke:#000000;stroke-opacity:1;text-rendering:geometricPrecision"
     id="g250"
     transform="translate(335,48)"
     font-size="11">
    <text
       style="stroke:none"
       id="text252"
       clip-path="url(#clipPath11)"
       y="97"
       xml:space="preserve"
       x="2">+update()</text>
  </g>
  <g
     style="font-style:italic;font-weight:bold;font-size:11px;font-family:sans-serif;fill:#000000;fill-opacity:1;stroke:#000000;stroke-opacity:1;text-rendering:geometricPrecision"
     id="g254"
     font-weight="bold"
     font-style="italic"
     transform="translate(335,34)"
     font-size="11">
    <text
       style="stroke:none"
       id="text256"
       clip-path="url(#clipPath12)"
       y="11"
       xml:space="preserve"
       x="20">DynamicMonitor</text>
  </g>
  <g
     style="font-weight:bold;font-size:11px;font-family:sans-serif;fill:#ffffff;fill-opacity:1;stroke:#ffffff;stroke-opacity:1;text-rendering:geometricPrecision"
     id="g258"
     font-weight="bold"
     transform="translate(287,172)"
     font-size="11">
    <rect
       style="stroke:none"
       id="rect260"
       clip-path="url(#clipPath13)"
       y="0"
       height="65"
       width="208"
       x="0" />
  </g>
  <g
     style="font-weight:bold;font-size:11px;font-family:sans-serif;fill:#000000;fill-opacity:1;stroke:#000000;stroke-linecap:butt;stroke-linejoin:round;stroke-miterlimit:0;stroke-opacity:1;text-rendering:geometricPrecision"
     id="g262"
     stroke-miterlimit="0"
     font-weight="bold"
     transform="translate(287,172)"
     font-size="11">
    <rect
       style="fill:none"
       id="rect264"
       clip-path="url(#clipPath13)"
       y="0"
       height="65"
       width="208"
       x="0" />
    <line
       style="fill:none"
       id="line266"
       y1="14"
       x2="208"
       clip-path="url(#clipPath13)"
       x1="0"
       y2="14" />
  </g>
  <g
     style="font-size:11px;font-family:sans-serif;fill:#000000;fill-opacity:1;stroke:#000000;stroke-opacity:1;text-rendering:geometricPrecision"
     id="g268"
     transform="translate(287,186)"
     font-size="11">
    <text
       style="stroke:none"
       id="text270"
       clip-path="url(#clipPath14)"
       y="13"
       xml:space="preserve"
       x="2">+register(observer)</text>
  </g>
  <g
     style="font-size:11px;font-family:sans-serif;fill:#000000;fill-opacity:1;stroke:#000000;stroke-opacity:1;text-rendering:geometricPrecision"
     id="g272"
     transform="translate(287,186)"
     font-size="11">
    <text
       style="stroke:none"
       id="text274"
       clip-path="url(#clipPath14)"
       y="27"
       xml:space="preserve"
       x="2">+unregister(observer)</text>
  </g>
  <g
     style="font-size:11px;font-family:sans-serif;fill:#000000;fill-opacity:1;stroke:#000000;stroke-opacity:1;text-rendering:geometricPrecision"
     id="g276"
     transform="translate(287,186)"
     font-size="11">
    <text
       style="stroke:none"
       id="text278"
       clip-path="url(#clipPath14)"
       y="41"
       xml:space="preserve"
       x="2">+notifyObservers(value)</text>
  </g>
  <g
     style="font-weight:bold;font-size:11px;font-family:sans-serif;fill:#000000;fill-opacity:1;stroke:#000000;stroke-opacity:1;text-rendering:geometricPrecision"
     id="g280"
     font-weight="bold"
     transform="translate(287,172)"
     font-size="11">
    <text
       style="stroke:none"
       id="text282"
       clip-path="url(#clipPath3)"
       y="11"
       xml:space="preserve"
       x="71">Observable</text>
  </g>
  <g
     style="font-weight:bold;font-size:11px;font-family:sans-serif;fill:#ffffff;fill-opacity:1;stroke:#ffffff;stroke-opacity:1;text-rendering:geometricPrecision"
     id="g284"
     font-weight="bold"
     transform="translate(2,34)"
     font-size="11">
    <rect
       style="stroke:none"
       id="rect286"
       clip-path="url(#clipPath15)"
       y="0"
       height="49"
       width="109"
       x="0" />
  </g>
  <g
     style="font-weight:bold;font-size:11px;font-family:sans-serif;fill:#000000;fill-opacity:1;stroke:#000000;stroke-linecap:butt;stroke-linejoin:round;stroke-miterlimit:0;stroke-opacity:1;text-rendering:geometricPrecision"
     id="g288"
     stroke-miterlimit="0"
     font-weight="bold"
     transform="translate(2,34)"
     font-size="11">
    <rect
       style="fill:none"
       id="rect290"
       clip-path="url(#clipPath15)"
       y="0"
       height="49"
       width="109"
       x="0" />
    <line
       style="fill:none"
       id="line292"
       y1="14"
       x2="109"
       clip-path="url(#clipPath15)"
       x1="0"
       y2="14" />
  </g>
  <g
     style="font-size:11px;font-family:sans-serif;fill:#000000;fill-opacity:1;stroke:#000000;stroke-opacity:1;text-rendering:geometricPrecision"
     id="g294"
     transform="translate(2,48)"
     font-size="11">
    <text
       style="stroke:none"
       id="text296"
       clip-path="url(#clipPath16)"
       y="13"
       xml:space="preserve"
       x="2">+possible_values()</text>
  </g>
  <g
     style="font-size:11px;font-family:sans-serif;fill:#000000;fill-opacity:1;stroke:#000000;stroke-opacity:1;text-rendering:geometricPrecision"
     id="g298"
     transform="translate(2,48)"
     font-size="11">
    <line
       style="fill:none"
       id="line300"
       y1="15"
       x2="104"
       clip-path="url(#clipPath16)"
       x1="2"
       y2="15" />
  </g>
  <g
     style="font-style:italic;font-weight:bold;font-size:11px;font-family:sans-serif;fill:#000000;fill-opacity:1;stroke:#000000;stroke-opacity:1;text-rendering:geometricPrecision"
     id="g302"
     font-weight="bold"
     font-style="italic"
     transform="translate(2,34)"
     font-size="11">
    <text
       style="stroke:none"
       id="text304"
       clip-path="url(#clipPath17)"
       y="11"
       xml:space="preserve"
       x="25">Parameter</text>
  </g>
  <g
     style="font-weight:bold;font-size:11px;font-family:sans-serif;fill:#ffffff;fill-opacity:1;stroke:#ffffff;stroke-opacity:1;text-rendering:geometricPrecision"
     id="g306"
     font-weight="bold"
     transform="translate(135,293)"
     font-size="11">
    <rect
       style="stroke:none"
       id="rect308"
       clip-path="url(#clipPath18)"
       y="0"
       height="40"
       width="360"
       x="0" />
  </g>
  <g
     style="font-weight:bold;font-size:11px;font-family:sans-serif;fill:#000000;fill-opacity:1;stroke:#000000;stroke-linecap:butt;stroke-linejoin:round;stroke-miterlimit:0;stroke-opacity:1;text-rendering:geometricPrecision"
     id="g310"
     stroke-miterlimit="0"
     font-weight="bold"
     transform="translate(135,293)"
     font-size="11">
    <rect
       style="fill:none"
       id="rect312"
       clip-path="url(#clipPath18)"
       y="0"
       height="40"
       width="360"
       x="0" />
    <line
       style="fill:none"
       id="line314"
       y1="14"
       x2="360"
       clip-path="url(#clipPath18)"
       x1="0"
       y2="14" />
  </g>
  <g
     style="font-style:italic;font-size:11px;font-family:sans-serif;fill:#000000;fill-opacity:1;stroke:#000000;stroke-opacity:1;text-rendering:geometricPrecision"
     id="g316"
     font-style="italic"
     transform="translate(135,307)"
     font-size="11">
    <text
       style="stroke:none"
       id="text318"
       clip-path="url(#clipPath19)"
       y="13"
       xml:space="preserve"
       x="2">+updated_monitored_value(parameter, old_value, new_value)</text>
  </g>
  <g
     style="font-style:italic;font-weight:bold;font-size:11px;font-family:sans-serif;fill:#000000;fill-opacity:1;stroke:#000000;stroke-opacity:1;text-rendering:geometricPrecision"
     id="g320"
     font-weight="bold"
     font-style="italic"
     transform="translate(135,293)"
     font-size="11">
    <text
       style="stroke:none"
       id="text322"
       clip-path="url(#clipPath20)"
       y="11"
       xml:space="preserve"
       x="104">ParameterValueSubscriber</text>
  </g>
  <g
     style="font-size:11px;font-family:sans-serif;fill:#000000;fill-opacity:1;stroke:#000000;stroke-linecap:butt;stroke-linejoin:round;stroke-dasharray:5;stroke-dashoffset:1;stroke-opacity:1;text-rendering:geometricPrecision"
     id="g324"
     transform="translate(220,230)"
     font-size="11">
    <line
       style="fill:none"
       id="line326"
       y1="36"
       x2="36"
       clip-path="url(#clipPath22)"
       x1="67"
       y2="36" />
  </g>
  <g
     style="font-size:11px;font-family:sans-serif;fill:#c0c0c0;fill-opacity:1;stroke:#c0c0c0;stroke-linecap:butt;stroke-linejoin:round;stroke-opacity:1;text-rendering:geometricPrecision"
     id="g328"
     transform="translate(220,230)"
     font-size="11">
    <polygon
       style="stroke:none"
       id="polygon330"
       clip-path="url(#clipPath22)"
       points="55,42 67,36 55,30 " />
    <polygon
       style="fill:none;stroke:#000000"
       id="polygon332"
       points="55,42 67,36 55,30 "
       clip-path="url(#clipPath22)" />
  </g>
  <g
     style="font-size:11px;font-family:sans-serif;fill:#000000;fill-opacity:1;stroke:#000000;stroke-linecap:butt;stroke-linejoin:round;stroke-opacity:1;text-rendering:geometricPrecision"
     id="g334"
     transform="translate(268,24)"
     font-size="11">
    <line
       style="fill:none"
       id="line336"
       y1="36"
       x2="67"
       clip-path="url(#clipPath24)"
       x1="35"
       y2="36" />
    <polygon
       style="fill:#ffffff;stroke:none"
       id="polygon338"
       points="47,30 35,36 47,42 "
       clip-path="url(#clipPath24)" />
    <polygon
       style="fill:none"
       id="polygon340"
       clip-path="url(#clipPath24)"
       points="47,30 35,36 47,42 " />
  </g>
  <g
     style="font-size:11px;font-family:sans-serif;fill:#000000;fill-opacity:1;stroke:#000000;stroke-linecap:butt;stroke-linejoin:round;stroke-opacity:1;text-rendering:geometricPrecision"
     id="g342"
     transform="translate(267,104)"
     font-size="11">
    <line
       style="fill:none"
       id="line344"
       y1="66"
       x2="36"
       clip-path="url(#clipPath26)"
       x1="36"
       y2="36" />
    <line
       style="fill:none"
       id="line346"
       y1="36"
       x2="66"
       clip-path="url(#clipPath26)"
       x1="36"
       y2="36" />
    <polygon
       style="fill:#ffffff;stroke:none"
       id="polygon348"
       points="30,54 36,66 42,54 "
       clip-path="url(#clipPath26)" />
    <polygon
       style="fill:none"
       id="polygon350"
       clip-path="url(#clipPath26)"
       points="30,54 36,66 42,54 " />
  </g>
  <g
     style="font-size:11px;font-family:sans-serif;fill:#000000;fill-opacity:1;stroke:#000000;stroke-linecap:butt;stroke-linejoin:round;stroke-dasharray:5;stroke-dashoffset:1;stroke-opacity:1;text-rendering:geometricPrecision"
     id="g352"
     transform="translate(52,49)"
     font-size="11">
    <line
       style="fill:none"
       id="line354"
       y1="36"
       x2="144"
       clip-path="url(#clipPath28)"
       x1="144"
       y2="71" />
    <line
       style="fill:none"
       id="line356"
       y1="71"
       x2="36"
       clip-path="url(#clipPath28)"
       x1="144"
       y2="71" />
    <line
       style="fill:none"
       id="line358"
       y1="71"
       x2="36"
       clip-path="url(#clipPath28)"
       x1="36"
       y2="36" />
    <line
       style="fill:none;stroke-dasharray:none;stroke-dashoffset:0"
       id="line360"
       y2="48"
       y1="36"
       x2="30"
       x1="36"
       clip-path="url(#clipPath28)" />
    <line
       style="fill:none;stroke-dasharray:none;stroke-dashoffset:0"
       id="line362"
       y2="48"
       y1="36"
       x2="42"
       x1="36"
       clip-path="url(#clipPath28)" />
  </g>
  <g
     style="font-size:11px;font-family:sans-serif;fill:#000000;fill-opacity:1;stroke:#000000;stroke-linecap:butt;stroke-linejoin:round;stroke-opacity:1;text-rendering:geometricPrecision"
     id="g364"
     transform="translate(112,-32)"
     font-size="11">
    <line
       style="fill:none"
       id="line366"
       y1="40"
       x2="83"
       clip-path="url(#clipPath30)"
       x1="83"
       y2="34" />
    <line
       style="fill:none"
       id="line368"
       y1="34"
       x2="36"
       clip-path="url(#clipPath30)"
       x1="83"
       y2="34" />
    <line
       style="fill:none"
       id="line370"
       y1="34"
       x2="36"
       clip-path="url(#clipPath30)"
       x1="36"
       y2="90" />
    <line
       style="fill:none"
       id="line372"
       y1="90"
       x2="61"
       clip-path="url(#clipPath30)"
       x1="36"
       y2="90" />
    <polygon
       style="fill:none"
       id="polygon374"
       clip-path="url(#clipPath30)"
       points="83,40 77,52 83,64 89,52 " />
  </g>
  <g
     style="font-size:11px;font-family:sans-serif;fill:#000000;fill-opacity:1;stroke:#000000;stroke-linecap:butt;stroke-linejoin:round;stroke-opacity:1;text-rendering:geometricPrecision"
     id="g376"
     transform="translate(217,-32)"
     font-size="11">
    <line
       style="fill:none"
       id="line378"
       y1="42"
       x2="178"
       clip-path="url(#clipPath32)"
       x1="178"
       y2="35" />
    <line
       style="fill:none"
       id="line380"
       y1="35"
       x2="36"
       clip-path="url(#clipPath32)"
       x1="178"
       y2="35" />
    <line
       style="fill:none"
       id="line382"
       y1="35"
       x2="36"
       clip-path="url(#clipPath32)"
       x1="36"
       y2="66" />
    <polygon
       style="fill:none"
       id="polygon384"
       clip-path="url(#clipPath32)"
       points="178,42 172,54 178,66 184,54 " />
  </g>
  <g
     style="font-size:11px;font-family:sans-serif;fill:#000000;fill-opacity:1;stroke:#000000;stroke-linecap:butt;stroke-linejoin:round;stroke-opacity:1;text-rendering:geometricPrecision"
     id="g386"
     transform="translate(409,-33)"
     font-size="11">
    <line
       style="fill:none"
       id="line388"
       y1="41"
       x2="36"
       clip-path="url(#clipPath34)"
       x1="36"
       y2="35" />
    <line
       style="fill:none"
       id="line390"
       y1="35"
       x2="85"
       clip-path="url(#clipPath34)"
       x1="36"
       y2="35" />
    <line
       style="fill:none"
       id="line392"
       y1="35"
       x2="85"
       clip-path="url(#clipPath34)"
       x1="85"
       y2="130" />
    <line
       style="fill:none"
       id="line394"
       y1="130"
       x2="61"
       clip-path="url(#clipPath34)"
       x1="85"
       y2="130" />
    <polygon
       style="fill:none"
       id="polygon396"
       clip-path="url(#clipPath34)"
       points="36,41 30,53 36,65 42,53 " />
  </g>
  <g
     style="font-size:11px;font-family:sans-serif;fill:#000000;fill-opacity:1;stroke:#000000;stroke-linecap:butt;stroke-linejoin:round;stroke-opacity:1;text-rendering:geometricPrecision"
     id="g398"
     transform="translate(-3,47)"
     font-size="11">
    <line
       style="fill:none"
       id="line400"
       y1="101"
       x2="36"
       clip-path="url(#clipPath36)"
       x1="36"
       y2="36" />
    <polygon
       style="fill:none"
       id="polygon402"
       clip-path="url(#clipPath36)"
       points="36,101 30,113 36,125 42,113 " />
  </g>
  <g
     style="font-size:11px;font-family:sans-serif;fill:#000000;fill-opacity:1;stroke:#000000;stroke-linecap:butt;stroke-linejoin:round;stroke-opacity:1;text-rendering:geometricPrecision"
     id="g404"
     transform="translate(197,84)"
     font-size="11">
    <line
       style="fill:none"
       id="line406"
       y1="36"
       x2="36"
       clip-path="url(#clipPath38)"
       x1="113"
       y2="36" />
    <line
       style="fill:none"
       id="line408"
       y1="36"
       x2="36"
       clip-path="url(#clipPath38)"
       x1="36"
       y2="89" />
    <polygon
       style="fill:none"
       id="polygon410"
       clip-path="url(#clipPath38)"
       points="113,36 125,42 137,36 125,30 " />
  </g>
  <g
     style="font-size:11px;font-family:sans-serif;fill:#000000;fill-opacity:1;stroke:#000000;stroke-linecap:butt;stroke-linejoin:round;stroke-opacity:1;text-rendering:geometricPrecision"
     id="g412"
     transform="translate(179,47)"
     font-size="11">
    <line
       style="fill:none"
       id="line414"
       y1="101"
       x2="36"
       clip-path="url(#clipPath39)"
       x1="36"
       y2="36" />
    <polygon
       style="fill:none"
       id="polygon416"
       clip-path="url(#clipPath39)"
       points="36,101 30,113 36,125 42,113 " />
  </g>
  <g
     style="font-size:11px;font-family:sans-serif;fill:#000000;fill-opacity:1;stroke:#000000;stroke-linecap:butt;stroke-linejoin:round;stroke-opacity:1;text-rendering:geometricPrecision"
     id="g418"
     transform="translate(-3,249)"
     font-size="11">
    <line
       style="fill:none"
       id="line420"
       y1="60"
       x2="36"
       clip-path="url(#clipPath41)"
       x1="36"
       y2="69" />
    <line
       style="fill:none"
       id="line422"
       y1="69"
       x2="138"
       clip-path="url(#clipPath41)"
       x1="36"
       y2="69" />
    <polygon
       style="fill:none"
       id="polygon424"
       clip-path="url(#clipPath41)"
       points="36,60 42,48 36,36 30,48 " />
  </g>
  <g
     style="font-size:11px;font-family:sans-serif;fill:#000000;fill-opacity:1;stroke:#000000;stroke-opacity:1;text-rendering:geometricPrecision"
     id="g426"
     transform="translate(89,102)"
     font-size="11">
    <text
       style="stroke:none"
       id="text428"
       clip-path="url(#clipPath42)"
       y="11"
       xml:space="preserve"
       x="9">&lt;&lt;depends&gt;&gt;</text>
  </g>
</svg>
