<?xml version="1.0" encoding="UTF-8" standalone="no"?>
<svg
   xmlns:dc="http://purl.org/dc/elements/1.1/"
   xmlns:cc="http://creativecommons.org/ns#"
   xmlns:rdf="http://www.w3.org/1999/02/22-rdf-syntax-ns#"
   xmlns:svg="http://www.w3.org/2000/svg"
   xmlns="http://www.w3.org/2000/svg"
   xmlns:sodipodi="http://sodipodi.sourceforge.net/DTD/sodipodi-0.dtd"
   xmlns:inkscape="http://www.inkscape.org/namespaces/inkscape"
   fill-opacity="0"
   color-rendering="auto"
   color-interpolation="auto"
   text-rendering="auto"
   stroke="rgb(0,0,0)"
   stroke-linecap="square"
   width="564"
   stroke-miterlimit="10"
   shape-rendering="auto"
   stroke-opacity="0"
   fill="rgb(0,0,0)"
   stroke-dasharray="none"
   font-weight="normal"
   stroke-width="1"
   height="247"
   font-family="'Dialog'"
   font-style="normal"
   stroke-linejoin="miter"
   font-size="12"
   stroke-dashoffset="0"
   image-rendering="auto"
   id="svg2"
   version="1.1"
   inkscape:version="0.91 r13725"
   sodipodi:docname="iso25023.svg">
  <metadata
     id="metadata337">
    <rdf:RDF>
      <cc:Work
         rdf:about="">
        <dc:format>image/svg+xml</dc:format>
        <dc:type
           rdf:resource="http://purl.org/dc/dcmitype/StillImage" />
      </cc:Work>
    </rdf:RDF>
  </metadata>
  <sodipodi:namedview
     pagecolor="#ffffff"
     bordercolor="#666666"
     borderopacity="1"
     objecttolerance="10"
     gridtolerance="10"
     guidetolerance="10"
     inkscape:pageopacity="0"
     inkscape:pageshadow="2"
     inkscape:window-width="1698"
     inkscape:window-height="937"
     id="namedview335"
     showgrid="false"
     inkscape:zoom="1.5546319"
     inkscape:cx="295.74303"
     inkscape:cy="113.29171"
     inkscape:window-x="0"
     inkscape:window-y="0"
     inkscape:window-maximized="0"
     inkscape:current-layer="svg2" />
  <!--Generated by the Batik Graphics2D SVG Generator-->
  <defs
     id="genericDefs">
    <defs
       id="defs1">
      <clipPath
         id="clipPath1"
         clipPathUnits="userSpaceOnUse">
        <path
           id="path9"
           d="M-7 -7 L188 -7 L188 51 L-7 51 L-7 -7 Z" />
      </clipPath>
      <clipPath
         id="clipPath2"
         clipPathUnits="userSpaceOnUse">
        <path
           id="path12"
           d="M0 0 L0 19 L177 19 L177 0 Z" />
      </clipPath>
      <clipPath
         id="clipPath3"
         clipPathUnits="userSpaceOnUse">
        <path
           id="path15"
           d="M0 0 L0 10 L177 10 L177 0 Z" />
      </clipPath>
      <clipPath
         id="clipPath4"
         clipPathUnits="userSpaceOnUse">
        <path
           id="path18"
           d="M0 0 L0 14 L177 14 L177 0 Z" />
      </clipPath>
      <clipPath
         id="clipPath5"
         clipPathUnits="userSpaceOnUse">
        <path
           id="path21"
           d="M-7 -7 L206 -7 L206 51 L-7 51 L-7 -7 Z" />
      </clipPath>
      <clipPath
         id="clipPath6"
         clipPathUnits="userSpaceOnUse">
        <path
           id="path24"
           d="M0 0 L0 19 L195 19 L195 0 Z" />
      </clipPath>
      <clipPath
         id="clipPath7"
         clipPathUnits="userSpaceOnUse">
        <path
           id="path27"
           d="M0 0 L0 10 L195 10 L195 0 Z" />
      </clipPath>
      <clipPath
         id="clipPath8"
         clipPathUnits="userSpaceOnUse">
        <path
           id="path30"
           d="M0 0 L0 14 L195 14 L195 0 Z" />
      </clipPath>
      <clipPath
         id="clipPath9"
         clipPathUnits="userSpaceOnUse">
        <path
           id="path33"
           d="M-7 -7 L168 -7 L168 51 L-7 51 L-7 -7 Z" />
      </clipPath>
      <clipPath
         id="clipPath10"
         clipPathUnits="userSpaceOnUse">
        <path
           id="path36"
           d="M0 0 L0 19 L157 19 L157 0 Z" />
      </clipPath>
      <clipPath
         id="clipPath11"
         clipPathUnits="userSpaceOnUse">
        <path
           id="path39"
           d="M0 0 L0 10 L157 10 L157 0 Z" />
      </clipPath>
      <clipPath
         id="clipPath12"
         clipPathUnits="userSpaceOnUse">
        <path
           id="path42"
           d="M0 0 L0 14 L157 14 L157 0 Z" />
      </clipPath>
      <clipPath
         id="clipPath13"
         clipPathUnits="userSpaceOnUse">
        <path
           id="path45"
           d="M-7 -7 L194 -7 L194 51 L-7 51 L-7 -7 Z" />
      </clipPath>
      <clipPath
         id="clipPath14"
         clipPathUnits="userSpaceOnUse">
        <path
           id="path48"
           d="M0 0 L0 19 L183 19 L183 0 Z" />
      </clipPath>
      <clipPath
         id="clipPath15"
         clipPathUnits="userSpaceOnUse">
        <path
           id="path51"
           d="M0 0 L0 10 L183 10 L183 0 Z" />
      </clipPath>
      <clipPath
         id="clipPath16"
         clipPathUnits="userSpaceOnUse">
        <path
           id="path54"
           d="M0 0 L0 14 L183 14 L183 0 Z" />
      </clipPath>
      <clipPath
         id="clipPath17"
         clipPathUnits="userSpaceOnUse">
        <path
           id="path57"
           d="M-7 -7 L140 -7 L140 51 L-7 51 L-7 -7 Z" />
      </clipPath>
      <clipPath
         id="clipPath18"
         clipPathUnits="userSpaceOnUse">
        <path
           id="path60"
           d="M0 0 L0 19 L129 19 L129 0 Z" />
      </clipPath>
      <clipPath
         id="clipPath19"
         clipPathUnits="userSpaceOnUse">
        <path
           id="path63"
           d="M0 0 L0 10 L129 10 L129 0 Z" />
      </clipPath>
      <clipPath
         id="clipPath20"
         clipPathUnits="userSpaceOnUse">
        <path
           id="path66"
           d="M0 0 L0 14 L129 14 L129 0 Z" />
      </clipPath>
      <clipPath
         id="clipPath21"
         clipPathUnits="userSpaceOnUse">
        <path
           id="path69"
           d="M-7 -7 L51 -7 L51 25 L-7 25 L-7 -7 Z" />
      </clipPath>
      <clipPath
         id="clipPath22"
         clipPathUnits="userSpaceOnUse">
        <path
           id="path72"
           d="M0 0 L0 14 L40 14 L40 0 Z" />
      </clipPath>
      <clipPath
         id="clipPath23"
         clipPathUnits="userSpaceOnUse">
        <path
           id="path75"
           d="M-7 -7 L51 -7 L51 51 L-7 51 L-7 -7 Z" />
      </clipPath>
      <clipPath
         id="clipPath24"
         clipPathUnits="userSpaceOnUse">
        <path
           id="path78"
           d="M0 0 L0 40 L40 40 L40 0 Z" />
      </clipPath>
      <clipPath
         id="clipPath25"
         clipPathUnits="userSpaceOnUse">
        <path
           id="path81"
           d="M0 0 L187 0 L187 104 L0 104 L0 0 Z" />
      </clipPath>
      <clipPath
         id="clipPath26"
         clipPathUnits="userSpaceOnUse">
        <path
           id="path84"
           d="M0 0 L0 81 L3 81 L3 95 L0 95 L0 104 L187 104 L187 0 Z" />
      </clipPath>
      <clipPath
         id="clipPath27"
         clipPathUnits="userSpaceOnUse">
        <path
           id="path87"
           d="M0 0 L380 0 L380 161 L0 161 L0 0 Z" />
      </clipPath>
      <clipPath
         id="clipPath28"
         clipPathUnits="userSpaceOnUse">
        <path
           id="path90"
           d="M0 0 L0 60 L98 60 L98 74 L0 74 L0 161 L380 161 L380 0 Z" />
      </clipPath>
      <clipPath
         id="clipPath29"
         clipPathUnits="userSpaceOnUse">
        <path
           id="path93"
           d="M0 0 L104 0 L104 161 L0 161 L0 0 Z" />
      </clipPath>
      <clipPath
         id="clipPath30"
         clipPathUnits="userSpaceOnUse">
        <path
           id="path96"
           d="M0 0 L0 161 L104 161 L104 74 L59 74 L59 60 L104 60 L104 0 Z" />
      </clipPath>
      <clipPath
         id="clipPath31"
         clipPathUnits="userSpaceOnUse">
        <path
           id="path99"
           d="M0 0 L147 0 L147 104 L0 104 L0 0 Z" />
      </clipPath>
      <clipPath
         id="clipPath32"
         clipPathUnits="userSpaceOnUse">
        <path
           id="path102"
           d="M0 0 L0 104 L147 104 L147 0 Z" />
      </clipPath>
      <clipPath
         id="clipPath33"
         clipPathUnits="userSpaceOnUse">
        <path
           id="path105"
           d="M0 0 L146 0 L146 104 L0 104 L0 0 Z" />
      </clipPath>
      <clipPath
         id="clipPath34"
         clipPathUnits="userSpaceOnUse">
        <path
           id="path108"
           d="M0 0 L0 104 L120 104 L120 90 L146 90 L146 0 Z" />
      </clipPath>
      <clipPath
         id="clipPath35"
         clipPathUnits="userSpaceOnUse">
        <path
           id="path111"
           d="M0 0 L0 104 L146 104 L146 10 L120 10 L120 0 Z" />
      </clipPath>
      <clipPath
         id="clipPath36"
         clipPathUnits="userSpaceOnUse">
        <path
           id="path114"
           d="M0 0 L104 0 L104 156 L0 156 L0 0 Z" />
      </clipPath>
      <clipPath
         id="clipPath37"
         clipPathUnits="userSpaceOnUse">
        <path
           id="path117"
           d="M0 0 L0 69 L104 69 L104 0 ZM0 83 L0 156 L104 156 L104 83 Z" />
      </clipPath>
      <clipPath
         id="clipPath38"
         clipPathUnits="userSpaceOnUse">
        <path
           id="path120"
           d="M-112 -14 L224 -14 L224 28 L-112 28 L-112 -14 Z" />
      </clipPath>
      <clipPath
         id="clipPath39"
         clipPathUnits="userSpaceOnUse">
        <path
           id="path123"
           d="M-101 -14 L202 -14 L202 28 L-101 28 L-101 -14 Z" />
      </clipPath>
    </defs>
  </defs>
  <g
     style="font-weight:bold;font-size:11px;font-family:sans-serif;fill:#ffffff;fill-opacity:1;stroke:#ffffff;stroke-opacity:1;text-rendering:geometricPrecision"
     id="g129"
     font-weight="bold"
     transform="translate(2,10)"
     font-size="11">
    <rect
       style="stroke:none"
       id="rect131"
       clip-path="url(#clipPath1)"
       y="0"
       height="40"
       width="177"
       x="0" />
  </g>
  <g
     style="font-weight:bold;font-size:11px;font-family:sans-serif;fill:#000000;fill-opacity:1;stroke:#000000;stroke-linecap:butt;stroke-linejoin:round;stroke-miterlimit:0;stroke-opacity:1;text-rendering:geometricPrecision"
     id="g133"
     stroke-miterlimit="0"
     font-weight="bold"
     transform="translate(2,10)"
     font-size="11">
    <rect
       style="fill:none"
       id="rect135"
       clip-path="url(#clipPath1)"
       y="0"
       height="40"
       width="177"
       x="0" />
  </g>
  <g
     style="font-weight:bold;font-size:11px;font-family:sans-serif;fill:#000000;fill-opacity:1;stroke:#000000;stroke-opacity:1;text-rendering:geometricPrecision"
     id="g137"
     font-weight="bold"
     transform="translate(2,10)"
     font-size="11">
    <text
       style="stroke:none"
       id="text139"
       clip-path="url(#clipPath4)"
       y="11"
       xml:space="preserve"
       x="24">Quality characteristics</text>
    <line
       style="fill:none"
       id="line141"
       y1="11"
       x2="151"
       clip-path="url(#clipPath4)"
       x1="24"
       y2="11" />
  </g>
  <g
     style="font-weight:bold;font-size:11px;font-family:sans-serif;fill:#ffffff;fill-opacity:1;stroke:#ffffff;stroke-opacity:1;text-rendering:geometricPrecision"
     id="g143"
     font-weight="bold"
     transform="translate(264,10)"
     font-size="11">
    <rect
       style="stroke:none"
       id="rect145"
       clip-path="url(#clipPath5)"
       y="0"
       height="40"
       width="195"
       x="0" />
  </g>
  <g
     style="font-weight:bold;font-size:11px;font-family:sans-serif;fill:#000000;fill-opacity:1;stroke:#000000;stroke-linecap:butt;stroke-linejoin:round;stroke-miterlimit:0;stroke-opacity:1;text-rendering:geometricPrecision"
     id="g147"
     stroke-miterlimit="0"
     font-weight="bold"
     transform="translate(264,10)"
     font-size="11">
    <rect
       style="fill:none"
       id="rect149"
       clip-path="url(#clipPath5)"
       y="0"
       height="40"
       width="195"
       x="0" />
  </g>
  <g
     style="font-weight:bold;font-size:11px;font-family:sans-serif;fill:#000000;fill-opacity:1;stroke:#000000;stroke-opacity:1;text-rendering:geometricPrecision"
     id="g151"
     font-weight="bold"
     transform="translate(264,10)"
     font-size="11">
    <text
       style="stroke:none"
       id="text153"
       clip-path="url(#clipPath8)"
       y="11"
       xml:space="preserve"
       x="20">Quality sub-characteristics</text>
    <line
       style="fill:none"
       id="line155"
       y1="11"
       x2="175"
       clip-path="url(#clipPath8)"
       x1="20"
       y2="11" />
  </g>
  <g
     style="font-weight:bold;font-size:11px;font-family:sans-serif;fill:#ffffff;fill-opacity:1;stroke:#ffffff;stroke-opacity:1;text-rendering:geometricPrecision"
     id="g157"
     font-weight="bold"
     transform="translate(176,109)"
     font-size="11">
    <rect
       style="stroke:none"
       id="rect159"
       clip-path="url(#clipPath9)"
       y="0"
       height="40"
       width="157"
       x="0" />
  </g>
  <g
     style="font-weight:bold;font-size:11px;font-family:sans-serif;fill:#000000;fill-opacity:1;stroke:#000000;stroke-linecap:butt;stroke-linejoin:round;stroke-miterlimit:0;stroke-opacity:1;text-rendering:geometricPrecision"
     id="g161"
     stroke-miterlimit="0"
     font-weight="bold"
     transform="translate(176,109)"
     font-size="11">
    <rect
       style="fill:none"
       id="rect163"
       clip-path="url(#clipPath9)"
       y="0"
       height="40"
       width="157"
       x="0" />
  </g>
  <g
     style="font-weight:bold;font-size:11px;font-family:sans-serif;fill:#000000;fill-opacity:1;stroke:#000000;stroke-opacity:1;text-rendering:geometricPrecision"
     id="g165"
     font-weight="bold"
     transform="translate(176,109)"
     font-size="11">
    <text
       style="stroke:none"
       id="text167"
       clip-path="url(#clipPath12)"
       y="11"
       xml:space="preserve"
       x="14">Measurement function</text>
    <line
       style="fill:none"
       id="line169"
       y1="11"
       x2="141"
       clip-path="url(#clipPath12)"
       x1="14"
       y2="11" />
  </g>
  <g
     style="font-weight:bold;font-size:11px;font-family:sans-serif;fill:#ffffff;fill-opacity:1;stroke:#ffffff;stroke-opacity:1;text-rendering:geometricPrecision"
     id="g171"
     font-weight="bold"
     transform="translate(377,203)"
     font-size="11">
    <rect
       style="stroke:none"
       id="rect173"
       clip-path="url(#clipPath13)"
       y="0"
       height="40"
       width="183"
       x="0" />
  </g>
  <g
     style="font-weight:bold;font-size:11px;font-family:sans-serif;fill:#000000;fill-opacity:1;stroke:#000000;stroke-linecap:butt;stroke-linejoin:round;stroke-miterlimit:0;stroke-opacity:1;text-rendering:geometricPrecision"
     id="g175"
     stroke-miterlimit="0"
     font-weight="bold"
     transform="translate(377,203)"
     font-size="11">
    <rect
       style="fill:none"
       id="rect177"
       clip-path="url(#clipPath13)"
       y="0"
       height="40"
       width="183"
       x="0" />
  </g>
  <g
     style="font-weight:bold;font-size:11px;font-family:sans-serif;fill:#000000;fill-opacity:1;stroke:#000000;stroke-opacity:1;text-rendering:geometricPrecision"
     id="g179"
     font-weight="bold"
     transform="translate(377,203)"
     font-size="11">
    <text
       style="stroke:none"
       id="text181"
       clip-path="url(#clipPath16)"
       y="11"
       xml:space="preserve"
       x="29">Measurement method</text>
    <line
       style="fill:none"
       id="line183"
       y1="11"
       x2="152"
       clip-path="url(#clipPath16)"
       x1="29"
       y2="11" />
  </g>
  <g
     style="font-weight:bold;font-size:11px;font-family:sans-serif;fill:#ffffff;fill-opacity:1;stroke:#ffffff;stroke-opacity:1;text-rendering:geometricPrecision"
     id="g185"
     font-weight="bold"
     transform="translate(2,203)"
     font-size="11">
    <rect
       style="stroke:none"
       id="rect187"
       clip-path="url(#clipPath17)"
       y="0"
       height="40"
       width="129"
       x="0" />
  </g>
  <g
     style="font-weight:bold;font-size:11px;font-family:sans-serif;fill:#000000;fill-opacity:1;stroke:#000000;stroke-linecap:butt;stroke-linejoin:round;stroke-miterlimit:0;stroke-opacity:1;text-rendering:geometricPrecision"
     id="g189"
     stroke-miterlimit="0"
     font-weight="bold"
     transform="translate(2,203)"
     font-size="11">
    <rect
       style="fill:none"
       id="rect191"
       clip-path="url(#clipPath17)"
       y="0"
       height="40"
       width="129"
       x="0" />
  </g>
  <g
     style="font-weight:bold;font-size:11px;font-family:sans-serif;fill:#000000;fill-opacity:1;stroke:#000000;stroke-opacity:1;text-rendering:geometricPrecision"
     id="g193"
     font-weight="bold"
     transform="translate(2,203)"
     font-size="11">
    <text
       style="stroke:none"
       id="text195"
       clip-path="url(#clipPath20)"
       y="11"
       xml:space="preserve"
       x="27">Target entity</text>
    <line
       style="fill:none"
       id="line197"
       y1="11"
       x2="100"
       clip-path="url(#clipPath20)"
       x1="27"
       y2="11" />
  </g>
  <g
     style="font-weight:bold;font-size:11px;font-family:sans-serif;fill:#ffffff;fill-opacity:1;stroke:#ffffff;stroke-opacity:1;text-rendering:geometricPrecision"
     id="g199"
     font-weight="bold"
     transform="translate(377,109)"
     font-size="11">
    <rect
       style="stroke:none"
       id="rect201"
       clip-path="url(#clipPath13)"
       y="0"
       height="40"
       width="183"
       x="0" />
  </g>
  <g
     style="font-weight:bold;font-size:11px;font-family:sans-serif;fill:#000000;fill-opacity:1;stroke:#000000;stroke-linecap:butt;stroke-linejoin:round;stroke-miterlimit:0;stroke-opacity:1;text-rendering:geometricPrecision"
     id="g203"
     stroke-miterlimit="0"
     font-weight="bold"
     transform="translate(377,109)"
     font-size="11">
    <rect
       style="fill:none"
       id="rect205"
       clip-path="url(#clipPath13)"
       y="0"
       height="40"
       width="183"
       x="0" />
  </g>
  <g
     style="font-weight:bold;font-size:11px;font-family:sans-serif;fill:#000000;fill-opacity:1;stroke:#000000;stroke-opacity:1;text-rendering:geometricPrecision"
     id="g207"
     font-weight="bold"
     transform="translate(377,109)"
     font-size="11">
    <text
       style="stroke:none"
       id="text209"
       clip-path="url(#clipPath16)"
       y="11"
       xml:space="preserve"
       x="17">Quality measure elements</text>
    <line
       style="fill:none"
       id="line211"
       y1="11"
       x2="165"
       clip-path="url(#clipPath16)"
       x1="17"
       y2="11" />
  </g>
  <g
     style="font-size:11px;font-family:sans-serif;fill:#000000;fill-opacity:1;stroke:#000000;stroke-opacity:1;text-rendering:geometricPrecision"
     id="g213"
     transform="translate(341,110)"
     font-size="11">
    <text
       style="stroke:none"
       id="text215"
       clip-path="url(#clipPath22)"
       y="11"
       xml:space="preserve"
       x="11">1..*</text>
  </g>
  <g
     style="font-weight:bold;font-size:11px;font-family:sans-serif;fill:#ffffff;fill-opacity:1;stroke:#ffffff;stroke-opacity:1;text-rendering:geometricPrecision"
     id="g217"
     font-weight="bold"
     transform="translate(176,203)"
     font-size="11">
    <rect
       style="stroke:none"
       id="rect219"
       clip-path="url(#clipPath9)"
       y="0"
       height="40"
       width="157"
       x="0" />
  </g>
  <g
     style="font-weight:bold;font-size:11px;font-family:sans-serif;fill:#000000;fill-opacity:1;stroke:#000000;stroke-linecap:butt;stroke-linejoin:round;stroke-miterlimit:0;stroke-opacity:1;text-rendering:geometricPrecision"
     id="g221"
     stroke-miterlimit="0"
     font-weight="bold"
     transform="translate(176,203)"
     font-size="11">
    <rect
       style="fill:none"
       id="rect223"
       clip-path="url(#clipPath9)"
       y="0"
       height="40"
       width="157"
       x="0" />
  </g>
  <g
     style="font-weight:bold;font-size:11px;font-family:sans-serif;fill:#000000;fill-opacity:1;stroke:#000000;stroke-opacity:1;text-rendering:geometricPrecision"
     id="g225"
     font-weight="bold"
     transform="translate(176,203)"
     font-size="11">
    <text
       style="stroke:none"
       id="text227"
       clip-path="url(#clipPath12)"
       y="11"
       xml:space="preserve"
       x="20">Property to quantify</text>
    <line
       style="fill:none"
       id="line229"
       y1="11"
       x2="134"
       clip-path="url(#clipPath12)"
       x1="20"
       y2="11" />
  </g>
  <g
     style="font-weight:bold;font-size:11px;font-family:sans-serif;fill:#ffffff;fill-opacity:1;stroke:#ffffff;stroke-opacity:1;text-rendering:geometricPrecision"
     id="g231"
     font-weight="bold"
     transform="translate(2,109)"
     font-size="11">
    <rect
       style="stroke:none"
       id="rect233"
       clip-path="url(#clipPath17)"
       y="0"
       height="40"
       width="129"
       x="0" />
  </g>
  <g
     style="font-weight:bold;font-size:11px;font-family:sans-serif;fill:#000000;fill-opacity:1;stroke:#000000;stroke-linecap:butt;stroke-linejoin:round;stroke-miterlimit:0;stroke-opacity:1;text-rendering:geometricPrecision"
     id="g235"
     stroke-miterlimit="0"
     font-weight="bold"
     transform="translate(2,109)"
     font-size="11">
    <rect
       style="fill:none"
       id="rect237"
       clip-path="url(#clipPath17)"
       y="0"
       height="40"
       width="129"
       x="0" />
  </g>
  <g
     style="font-weight:bold;font-size:11px;font-family:sans-serif;fill:#000000;fill-opacity:1;stroke:#000000;stroke-opacity:1;text-rendering:geometricPrecision"
     id="g239"
     font-weight="bold"
     transform="translate(2,109)"
     font-size="11">
    <text
       style="stroke:none"
       id="text241"
       clip-path="url(#clipPath20)"
       y="11"
       xml:space="preserve"
       x="18">Quality measure</text>
    <line
       style="fill:none"
       id="line243"
       y1="11"
       x2="111"
       clip-path="url(#clipPath20)"
       x1="18"
       y2="11" />
  </g>
  <g
     style="font-size:11px;font-family:sans-serif;fill:#000000;fill-opacity:1;stroke:#000000;stroke-opacity:1;text-rendering:geometricPrecision"
     id="g245"
     transform="translate(120,122)"
     font-size="11">
    <text
       style="stroke:none"
       id="text247"
       clip-path="url(#clipPath24)"
       y="24"
       xml:space="preserve"
       x="16">1</text>
  </g>
  <g
     style="font-size:11px;font-family:sans-serif;fill:#000000;fill-opacity:1;stroke:#000000;stroke-opacity:1;text-rendering:geometricPrecision"
     id="g249"
     transform="translate(230,2)"
     font-size="11">
    <text
       style="stroke:none"
       id="text251"
       clip-path="url(#clipPath24)"
       y="24"
       xml:space="preserve"
       x="17">*</text>
  </g>
  <g
     style="font-size:11px;font-family:sans-serif;fill:#000000;fill-opacity:1;stroke:#000000;stroke-linecap:butt;stroke-linejoin:round;stroke-opacity:1;text-rendering:geometricPrecision"
     id="g253"
     transform="translate(130,-20)"
     font-size="11">
    <line
       style="fill:none"
       id="line255"
       y1="50"
       x2="133"
       clip-path="url(#clipPath26)"
       x1="74"
       y2="50" />
    <polygon
       style="stroke:none"
       id="polygon257"
       clip-path="url(#clipPath26)"
       points="74,50 62,44 50,50 62,56 " />
    <polygon
       style="fill:none"
       id="polygon259"
       clip-path="url(#clipPath26)"
       points="74,50 62,44 50,50 62,56 " />
  </g>
  <g
     style="font-size:11px;font-family:sans-serif;fill:#000000;fill-opacity:1;stroke:#000000;stroke-linecap:butt;stroke-linejoin:round;stroke-dasharray:5;stroke-dashoffset:1;stroke-opacity:1;text-rendering:geometricPrecision"
     id="g261"
     transform="translate(35,1)"
     font-size="11">
    <line
       style="fill:none"
       id="line263"
       y1="50"
       x2="326"
       clip-path="url(#clipPath28)"
       x1="326"
       y2="80" />
    <line
       style="fill:none"
       id="line265"
       y1="80"
       x2="50"
       clip-path="url(#clipPath28)"
       x1="326"
       y2="80" />
    <line
       style="fill:none"
       id="line267"
       y1="80"
       x2="50"
       clip-path="url(#clipPath28)"
       x1="50"
       y2="107" />
    <line
       style="fill:none;stroke-dasharray:none;stroke-dashoffset:0"
       id="line269"
       y2="95"
       y1="107"
       x2="56"
       x1="50"
       clip-path="url(#clipPath28)" />
    <line
       style="fill:none;stroke-dasharray:none;stroke-dashoffset:0"
       id="line271"
       y2="95"
       y1="107"
       x2="44"
       x1="50"
       clip-path="url(#clipPath28)" />
  </g>
  <g
     style="font-size:11px;font-family:sans-serif;fill:#000000;fill-opacity:1;stroke:#000000;stroke-linecap:butt;stroke-linejoin:round;stroke-dasharray:5;stroke-dashoffset:1;stroke-opacity:1;text-rendering:geometricPrecision"
     id="g273"
     transform="translate(-27,1)"
     font-size="11">
    <line
       style="fill:none"
       id="line275"
       y1="50"
       x2="50"
       clip-path="url(#clipPath30)"
       x1="50"
       y2="107" />
    <line
       style="fill:none;stroke-dasharray:none;stroke-dashoffset:0"
       id="line277"
       y2="95"
       y1="107"
       x2="56"
       x1="50"
       clip-path="url(#clipPath30)" />
    <line
       style="fill:none;stroke-dasharray:none;stroke-dashoffset:0"
       id="line279"
       y2="95"
       y1="107"
       x2="44"
       x1="50"
       clip-path="url(#clipPath30)" />
  </g>
  <g
     style="font-size:11px;font-family:sans-serif;fill:#000000;fill-opacity:1;stroke:#000000;stroke-linecap:butt;stroke-linejoin:round;stroke-opacity:1;text-rendering:geometricPrecision"
     id="g281"
     transform="translate(82,79)"
     font-size="11">
    <line
       style="fill:none"
       id="line283"
       y1="50"
       x2="93"
       clip-path="url(#clipPath32)"
       x1="74"
       y2="50" />
    <polygon
       style="stroke:none"
       id="polygon285"
       clip-path="url(#clipPath32)"
       points="74,50 62,44 50,50 62,56 " />
    <polygon
       style="fill:none"
       id="polygon287"
       clip-path="url(#clipPath32)"
       points="74,50 62,44 50,50 62,56 " />
  </g>
  <g
     style="font-size:11px;font-family:sans-serif;fill:#000000;fill-opacity:1;stroke:#000000;stroke-linecap:butt;stroke-linejoin:round;stroke-opacity:1;text-rendering:geometricPrecision"
     id="g289"
     transform="translate(284,79)"
     font-size="11">
    <line
       style="fill:none"
       id="line291"
       y1="50"
       x2="92"
       clip-path="url(#clipPath34)"
       x1="74"
       y2="50" />
    <polygon
       style="stroke:none"
       id="polygon293"
       clip-path="url(#clipPath34)"
       points="74,50 62,44 50,50 62,56 " />
    <polygon
       style="fill:none"
       id="polygon295"
       clip-path="url(#clipPath34)"
       points="74,50 62,44 50,50 62,56 " />
  </g>
  <g
     style="font-size:11px;font-family:sans-serif;fill:#000000;fill-opacity:1;stroke:#000000;stroke-linecap:butt;stroke-linejoin:round;stroke-opacity:1;text-rendering:geometricPrecision"
     id="g297"
     transform="translate(82,172)"
     font-size="11">
    <line
       style="fill:none"
       id="line299"
       y1="50"
       x2="93"
       clip-path="url(#clipPath32)"
       x1="74"
       y2="50" />
    <polygon
       style="stroke:none"
       id="polygon301"
       clip-path="url(#clipPath32)"
       points="74,50 62,44 50,50 62,56 " />
    <polygon
       style="fill:none"
       id="polygon303"
       clip-path="url(#clipPath32)"
       points="74,50 62,44 50,50 62,56 " />
  </g>
  <g
     style="font-size:11px;font-family:sans-serif;fill:#000000;fill-opacity:1;stroke:#000000;stroke-linecap:butt;stroke-linejoin:round;stroke-opacity:1;text-rendering:geometricPrecision"
     id="g305"
     transform="translate(284,173)"
     font-size="11">
    <line
       style="fill:none"
       id="line307"
       y1="50"
       x2="92"
       clip-path="url(#clipPath35)"
       x1="74"
       y2="50" />
    <polygon
       style="stroke:none"
       id="polygon309"
       clip-path="url(#clipPath35)"
       points="74,50 62,44 50,50 62,56 " />
    <polygon
       style="fill:none"
       id="polygon311"
       clip-path="url(#clipPath35)"
       points="74,50 62,44 50,50 62,56 " />
  </g>
  <g
     style="font-size:11px;font-family:sans-serif;fill:#000000;fill-opacity:1;stroke:#000000;stroke-linecap:butt;stroke-linejoin:round;stroke-dasharray:5;stroke-dashoffset:1;stroke-opacity:1;text-rendering:geometricPrecision"
     id="g313"
     transform="translate(406,100)"
     font-size="11">
    <line
       style="fill:none"
       id="line315"
       y1="102"
       x2="50"
       clip-path="url(#clipPath37)"
       x1="50"
       y2="50" />
    <line
       style="fill:none;stroke-dasharray:none;stroke-dashoffset:0"
       id="line317"
       y2="62"
       y1="50"
       x2="44"
       x1="50"
       clip-path="url(#clipPath37)" />
    <line
       style="fill:none;stroke-dasharray:none;stroke-dashoffset:0"
       id="line319"
       y2="62"
       y1="50"
       x2="56"
       x1="50"
       clip-path="url(#clipPath37)" />
  </g>
  <g
     style="font-size:11px;font-family:sans-serif;fill:#000000;fill-opacity:1;stroke:#000000;stroke-opacity:1;text-rendering:geometricPrecision"
     id="g321"
     transform="translate(404,169)"
     font-size="11">
    <text
       style="stroke:none"
       id="text323"
       clip-path="url(#clipPath38)"
       y="11"
       xml:space="preserve"
       x="9">&lt;&lt; produces &gt;&gt;</text>
  </g>
  <g
     style="font-size:11px;font-family:sans-serif;fill:#000000;fill-opacity:1;stroke:#000000;stroke-opacity:1;text-rendering:geometricPrecision"
     id="g325"
     transform="translate(32,61)"
     font-size="11">
    <text
       style="stroke:none"
       id="text327"
       clip-path="url(#clipPath39)"
       y="11"
       xml:space="preserve"
       x="10">is measured by</text>
  </g>
</svg>
